/Users/antoinedepaepe/Documents/temp2/genie_logiciel_project/src/main/java/fr/ensai/demo/model/filesystem/FileLeaf.java
/Users/antoinedepaepe/Documents/temp2/genie_logiciel_project/src/main/java/fr/ensai/demo/model/visitor/FileSystemVisitor.java
/Users/antoinedepaepe/Documents/temp2/genie_logiciel_project/src/main/java/fr/ensai/demo/service/ScanService.java
/Users/antoinedepaepe/Documents/temp2/genie_logiciel_project/src/main/java/fr/ensai/demo/repository/ScanRepository.java
/Users/antoinedepaepe/Documents/temp2/genie_logiciel_project/src/main/java/fr/ensai/demo/Application.java
/Users/antoinedepaepe/Documents/temp2/genie_logiciel_project/src/main/java/fr/ensai/demo/repository/FileLeafRepository.java
/Users/antoinedepaepe/Documents/temp2/genie_logiciel_project/src/main/java/fr/ensai/demo/model/strategy/S3FileSystemScanner.java
/Users/antoinedepaepe/Documents/temp2/genie_logiciel_project/src/main/java/fr/ensai/demo/model/filesystem/InterfaceFileSystemComponent.java
/Users/antoinedepaepe/Documents/temp2/genie_logiciel_project/src/main/java/fr/ensai/demo/controller/ScanController.java
/Users/antoinedepaepe/Documents/temp2/genie_logiciel_project/src/main/java/fr/ensai/demo/model/scan/Scan.java
/Users/antoinedepaepe/Documents/temp2/genie_logiciel_project/src/main/java/fr/ensai/demo/model/strategy/FileSystemScanner.java
/Users/antoinedepaepe/Documents/temp2/genie_logiciel_project/src/main/java/fr/ensai/demo/model/strategy/InterfaceFileSystemScannerStrategy.java
/Users/antoinedepaepe/Documents/temp2/genie_logiciel_project/src/main/java/fr/ensai/demo/model/strategy/LocalFileSystemScanner.java
/Users/antoinedepaepe/Documents/temp2/genie_logiciel_project/src/main/java/fr/ensai/demo/model/filesystem/FolderComponent.java
/Users/antoinedepaepe/Documents/temp2/genie_logiciel_project/src/main/java/fr/ensai/demo/model/visitor/InterfaceFileSystemVisitor.java
